\relax 
\providecommand\hyper@newdestlabel[2]{}
\@nameuse{bbl@beforestart}
\catcode `"\active 
\providecommand*\new@tpo@label[2]{}
\providecommand\HyperFirstAtBeginDocument{\AtBeginDocument}
\HyperFirstAtBeginDocument{\ifx\hyper@anchor\@undefined
\global\let\oldcontentsline\contentsline
\gdef\contentsline#1#2#3#4{\oldcontentsline{#1}{#2}{#3}}
\global\let\oldnewlabel\newlabel
\gdef\newlabel#1#2{\newlabelxx{#1}#2}
\gdef\newlabelxx#1#2#3#4#5#6{\oldnewlabel{#1}{{#2}{#3}}}
\AtEndDocument{\ifx\hyper@anchor\@undefined
\let\contentsline\oldcontentsline
\let\newlabel\oldnewlabel
\fi}
\fi}
\global\let\hyper@last\relax 
\gdef\HyperFirstAtBeginDocument#1{#1}
\providecommand\HyField@AuxAddToFields[1]{}
\providecommand\HyField@AuxAddToCoFields[2]{}
\abx@aux@refcontext{nty/global//global/global}
\AC@reset@newl@bel
\@writefile{toc}{\boolfalse {citerequest}\boolfalse {citetracker}\boolfalse {pagetracker}\boolfalse {backtracker}\relax }
\@writefile{lof}{\boolfalse {citerequest}\boolfalse {citetracker}\boolfalse {pagetracker}\boolfalse {backtracker}\relax }
\@writefile{lot}{\boolfalse {citerequest}\boolfalse {citetracker}\boolfalse {pagetracker}\boolfalse {backtracker}\relax }
\babel@aux{ngerman}{}
\@writefile{toc}{\defcounter {refsection}{0}\relax }\@writefile{toc}{\contentsline {section}{\numberline {1}Einleitung}{2}{section.1}\protected@file@percent }
\@writefile{toc}{\defcounter {refsection}{0}\relax }\@writefile{toc}{\contentsline {section}{\numberline {2}Aufgaben der OGC und deren Mitglieder}{2}{section.2}\protected@file@percent }
\abx@aux@cite{OGC-3D-Tiles}
\abx@aux@segm{0}{0}{OGC-3D-Tiles}
\@writefile{toc}{\defcounter {refsection}{0}\relax }\@writefile{toc}{\contentsline {section}{\numberline {3}Beschreibung von 3D-Tiles}{4}{section.3}\protected@file@percent }
\newlabel{3D-Tiles}{{3}{4}{Beschreibung von 3D-Tiles}{section.3}{}}
\@writefile{lof}{\defcounter {refsection}{0}\relax }\@writefile{lof}{\contentsline {figure}{\numberline {1}{\ignorespaces links Abbildung eines geringen Level of Details und rechts eine detailliertere Abbildung des selben Kamerawinkels  (Quelle: ContextCapture - Web publishing with Cesium)\relax }}{4}{figure.caption.2}\protected@file@percent }
\providecommand*\caption@xref[2]{\@setref\relax\@undefined{#1}}
\newlabel{A2_Cesium}{{1}{4}{links Abbildung eines geringen Level of Details und rechts eine detailliertere Abbildung des selben Kamerawinkels\\ (Quelle: ContextCapture - Web publishing with Cesium)\relax }{figure.caption.2}{}}
\abx@aux@cite{Cesium-3D-Tiles-Overview}
\abx@aux@segm{0}{0}{Cesium-3D-Tiles-Overview}
\@writefile{lof}{\defcounter {refsection}{0}\relax }\@writefile{lof}{\contentsline {figure}{\numberline {2}{\ignorespaces links einzelne Child-Knoten und rechts die zusammengesetzte Szene  (Quelle: 3D Tiles Overview von Cesium (Bearbeitet))\relax }}{5}{figure.caption.3}\protected@file@percent }
\newlabel{A2_Overview}{{2}{5}{links einzelne Child-Knoten und rechts die zusammengesetzte Szene\\ (Quelle: 3D Tiles Overview von Cesium (Bearbeitet))\relax }{figure.caption.3}{}}
\abx@aux@cite{ISO-About-us}
\abx@aux@segm{0}{0}{ISO-About-us}
\abx@aux@cite{ISO-WFS}
\abx@aux@segm{0}{0}{ISO-WFS}
\@writefile{toc}{\defcounter {refsection}{0}\relax }\@writefile{toc}{\contentsline {section}{\numberline {4}ISO und WFS-Standard}{6}{section.4}\protected@file@percent }
\@writefile{toc}{\defcounter {refsection}{0}\relax }\@writefile{toc}{\contentsline {section}{\numberline {5}Mitgliedschaften in der ISO}{6}{section.5}\protected@file@percent }
\@writefile{toc}{\defcounter {refsection}{0}\relax }\@writefile{toc}{\contentsline {section}{\numberline {6}Übung}{7}{section.6}\protected@file@percent }
\@writefile{toc}{\defcounter {refsection}{0}\relax }\@writefile{toc}{\contentsline {subsection}{\numberline {6.1}Teil 1 - Geoportal Hessen}{7}{subsection.6.1}\protected@file@percent }
\@writefile{lof}{\defcounter {refsection}{0}\relax }\@writefile{lof}{\contentsline {figure}{\numberline {3}{\ignorespaces Abbildung eines nicht geladenen WMS Dienstes, erkennen an dem Symbol oben links im Kartenbild  (Screenshot: Geoportal Hessen)\relax }}{7}{figure.caption.4}\protected@file@percent }
\newlabel{UE_1}{{3}{7}{Abbildung eines nicht geladenen WMS Dienstes, erkennen an dem Symbol oben links im Kartenbild\\ (Screenshot: Geoportal Hessen)\relax }{figure.caption.4}{}}
\@writefile{lof}{\defcounter {refsection}{0}\relax }\@writefile{lof}{\contentsline {figure}{\numberline {4}{\ignorespaces Lärmschutzbereiche des Flughafens Frankfurt mit standard Hintergrund  (Screenshot: Geoportal Hessen)\relax }}{8}{figure.caption.5}\protected@file@percent }
\newlabel{UE_2}{{4}{8}{Lärmschutzbereiche des Flughafens Frankfurt mit standard Hintergrund\\ (Screenshot: Geoportal Hessen)\relax }{figure.caption.5}{}}
\@writefile{lof}{\defcounter {refsection}{0}\relax }\@writefile{lof}{\contentsline {figure}{\numberline {5}{\ignorespaces Lärmschutzbereiche des Flughafens Frankfurt mit historischen Luftbildern  (Screenshot: Geoportal Hessen)\relax }}{8}{figure.caption.6}\protected@file@percent }
\newlabel{UE_3}{{5}{8}{Lärmschutzbereiche des Flughafens Frankfurt mit historischen Luftbildern\\ (Screenshot: Geoportal Hessen)\relax }{figure.caption.6}{}}
\@writefile{lof}{\defcounter {refsection}{0}\relax }\@writefile{lof}{\contentsline {figure}{\numberline {6}{\ignorespaces XML-Dokument geöffnet mit Visual Studio Code\relax }}{9}{figure.caption.7}\protected@file@percent }
\newlabel{UE_4}{{6}{9}{XML-Dokument geöffnet mit Visual Studio Code\relax }{figure.caption.7}{}}
\@writefile{toc}{\defcounter {refsection}{0}\relax }\@writefile{toc}{\contentsline {subsection}{\numberline {6.2}Teil 2 - Landschaftsinformationssystem RLP}{10}{subsection.6.2}\protected@file@percent }
\@writefile{lof}{\defcounter {refsection}{0}\relax }\@writefile{lof}{\contentsline {figure}{\numberline {7}{\ignorespaces Abfrage über Landschaftsschutzgebiete anhand eines Punktes  (Screenshot: LANIS)\relax }}{10}{figure.caption.8}\protected@file@percent }
\newlabel{UE_5}{{7}{10}{Abfrage über Landschaftsschutzgebiete anhand eines Punktes\\ (Screenshot: LANIS)\relax }{figure.caption.8}{}}
\@writefile{lof}{\defcounter {refsection}{0}\relax }\@writefile{lof}{\contentsline {figure}{\numberline {8}{\ignorespaces ArcGIS mit geladenen Vektordaten und Hintergrundkarte(WMS)\relax }}{10}{figure.caption.9}\protected@file@percent }
\newlabel{UE_6}{{8}{10}{ArcGIS mit geladenen Vektordaten und Hintergrundkarte(WMS)\relax }{figure.caption.9}{}}
\@writefile{toc}{\defcounter {refsection}{0}\relax }\@writefile{toc}{\contentsline {subsection}{\numberline {6.3}Teil 3 - Geoportal.de}{11}{subsection.6.3}\protected@file@percent }
\@writefile{lof}{\defcounter {refsection}{0}\relax }\@writefile{lof}{\contentsline {figure}{\numberline {9}{\ignorespaces Vergleich zweier Layer im Geoportal DE (leider wurde der linke Layer nicht geladen) (Screenshot: Geoportal DE)\relax }}{11}{figure.caption.10}\protected@file@percent }
\newlabel{UE_7}{{9}{11}{Vergleich zweier Layer im Geoportal DE (leider wurde der linke Layer nicht geladen)\\(Screenshot: Geoportal DE)\relax }{figure.caption.10}{}}
\@writefile{lof}{\defcounter {refsection}{0}\relax }\@writefile{lof}{\contentsline {figure}{\numberline {10}{\ignorespaces Geoportal DE mit Vogel und Naturschutzgebiete  (Screenshot: Geoportal DE)\relax }}{11}{figure.caption.11}\protected@file@percent }
\newlabel{UE_8}{{10}{11}{Geoportal DE mit Vogel und Naturschutzgebiete \\(Screenshot: Geoportal DE)\relax }{figure.caption.11}{}}
\@writefile{toc}{\defcounter {refsection}{0}\relax }\@writefile{toc}{\contentsline {section}{\numberline {7}Feedbeck}{12}{section.7}\protected@file@percent }
\@writefile{lof}{\defcounter {refsection}{0}\relax }\@writefile{lof}{\contentsline {figure}{\numberline {11}{\ignorespaces 3D-Viewer des Geoportal DE basierend auf Cesium (Screenshot: Geoportal DE)\relax }}{13}{figure.caption.12}\protected@file@percent }
\newlabel{Feedback_1}{{11}{13}{3D-Viewer des Geoportal DE basierend auf Cesium\\(Screenshot: Geoportal DE)\relax }{figure.caption.12}{}}
\abx@aux@refcontextdefaultsdone
\abx@aux@defaultrefcontext{0}{Cesium-3D-Tiles-Overview}{nty/global//global/global}
\abx@aux@defaultrefcontext{0}{OGC-3D-Tiles}{nty/global//global/global}
\abx@aux@defaultrefcontext{0}{ISO-About-us}{nty/global//global/global}
\abx@aux@defaultrefcontext{0}{ISO-WFS}{nty/global//global/global}
