\boolfalse {citerequest}\boolfalse {citetracker}\boolfalse {pagetracker}\boolfalse {backtracker}\relax 
\babel@toc {ngerman}{}
\defcounter {refsection}{0}\relax 
\contentsline {section}{\numberline {1}Einleitung}{2}{section.1}%
\defcounter {refsection}{0}\relax 
\contentsline {section}{\numberline {2}Prinzip eines GeoMIS}{2}{section.2}%
\defcounter {refsection}{0}\relax 
\contentsline {section}{\numberline {3}Bereitstellungszenarien für Metadaten}{4}{section.3}%
\defcounter {refsection}{0}\relax 
\contentsline {section}{\numberline {4}Organisationen im GeoMIS.Sachsen}{5}{section.4}%
\defcounter {refsection}{0}\relax 
\contentsline {section}{\numberline {5}Übung Metadaten}{6}{section.5}%
\defcounter {refsection}{0}\relax 
\contentsline {subsection}{\numberline {5.1}Teil 1 Geodatenkatalog Hessen}{6}{subsection.5.1}%
\defcounter {refsection}{0}\relax 
\contentsline {subsection}{\numberline {5.2}Teil 2 Geodatenkatalog.de}{6}{subsection.5.2}%
\defcounter {refsection}{0}\relax 
\contentsline {subsection}{\numberline {5.3}Teil 3 FAO}{7}{subsection.5.3}%
\defcounter {refsection}{0}\relax 
\contentsline {section}{\numberline {6}Feedback}{9}{section.6}%
