\relax 
\providecommand\hyper@newdestlabel[2]{}
\@nameuse{bbl@beforestart}
\catcode `"\active 
\providecommand*\new@tpo@label[2]{}
\providecommand\HyperFirstAtBeginDocument{\AtBeginDocument}
\HyperFirstAtBeginDocument{\ifx\hyper@anchor\@undefined
\global\let\oldcontentsline\contentsline
\gdef\contentsline#1#2#3#4{\oldcontentsline{#1}{#2}{#3}}
\global\let\oldnewlabel\newlabel
\gdef\newlabel#1#2{\newlabelxx{#1}#2}
\gdef\newlabelxx#1#2#3#4#5#6{\oldnewlabel{#1}{{#2}{#3}}}
\AtEndDocument{\ifx\hyper@anchor\@undefined
\let\contentsline\oldcontentsline
\let\newlabel\oldnewlabel
\fi}
\fi}
\global\let\hyper@last\relax 
\gdef\HyperFirstAtBeginDocument#1{#1}
\providecommand\HyField@AuxAddToFields[1]{}
\providecommand\HyField@AuxAddToCoFields[2]{}
\abx@aux@refcontext{nty/global//global/global}
\AC@reset@newl@bel
\@writefile{toc}{\boolfalse {citerequest}\boolfalse {citetracker}\boolfalse {pagetracker}\boolfalse {backtracker}\relax }
\@writefile{lof}{\boolfalse {citerequest}\boolfalse {citetracker}\boolfalse {pagetracker}\boolfalse {backtracker}\relax }
\@writefile{lot}{\boolfalse {citerequest}\boolfalse {citetracker}\boolfalse {pagetracker}\boolfalse {backtracker}\relax }
\babel@aux{ngerman}{}
\@writefile{toc}{\defcounter {refsection}{0}\relax }\@writefile{toc}{\contentsline {section}{\numberline {1}Einleitung}{2}{section.1}\protected@file@percent }
\@writefile{toc}{\defcounter {refsection}{0}\relax }\@writefile{toc}{\contentsline {section}{\numberline {2}Prinzip eines GeoMIS}{2}{section.2}\protected@file@percent }
\@writefile{lof}{\defcounter {refsection}{0}\relax }\@writefile{lof}{\contentsline {figure}{\numberline {1}{\ignorespaces Auflistung der Suchergebnisse zu Bodenrichtwerten im GeoMIS.Sachsen. (Screenshot: GeoMIS.Sachsen)\relax }}{2}{figure.caption.2}\protected@file@percent }
\providecommand*\caption@xref[2]{\@setref\relax\@undefined{#1}}
\newlabel{GeoMISSachsen}{{1}{2}{Auflistung der Suchergebnisse zu Bodenrichtwerten im GeoMIS.Sachsen.\\(Screenshot: GeoMIS.Sachsen)\relax }{figure.caption.2}{}}
\@writefile{lof}{\defcounter {refsection}{0}\relax }\@writefile{lof}{\contentsline {figure}{\numberline {2}{\ignorespaces Abbildung des Dienstes Bodenrichtwert Sachsen 2020. (Screenshot: GeoViewer.Sachsen)\relax }}{3}{figure.caption.3}\protected@file@percent }
\newlabel{Bodenrichtwert2020}{{2}{3}{Abbildung des Dienstes Bodenrichtwert Sachsen 2020.\\(Screenshot: GeoViewer.Sachsen)\relax }{figure.caption.3}{}}
\abx@aux@cite{Bereitstellung}
\abx@aux@segm{0}{0}{Bereitstellung}
\abx@aux@cite{Bereitstellung}
\abx@aux@segm{0}{0}{Bereitstellung}
\abx@aux@cite{Bereitstellung}
\abx@aux@segm{0}{0}{Bereitstellung}
\@writefile{toc}{\defcounter {refsection}{0}\relax }\@writefile{toc}{\contentsline {section}{\numberline {3}Bereitstellungszenarien für Metadaten}{4}{section.3}\protected@file@percent }
\@writefile{lof}{\defcounter {refsection}{0}\relax }\@writefile{lof}{\contentsline {figure}{\numberline {3}{\ignorespaces Entscheidungsbaum um das jeweilige Szenario zu ermitteln (Quelle: Bereitstellung von Geodaten für INSPIRE \cite {Bereitstellung})\relax }}{4}{figure.caption.4}\protected@file@percent }
\newlabel{Entscheidungsbaum}{{3}{4}{Entscheidungsbaum um das jeweilige Szenario zu ermitteln\\(Quelle: Bereitstellung von Geodaten für INSPIRE \cite {Bereitstellung})\relax }{figure.caption.4}{}}
\@writefile{toc}{\defcounter {refsection}{0}\relax }\@writefile{toc}{\contentsline {section}{\numberline {4}Organisationen im GeoMIS.Sachsen}{5}{section.4}\protected@file@percent }
\@writefile{toc}{\defcounter {refsection}{0}\relax }\@writefile{toc}{\contentsline {section}{\numberline {5}Übung Metadaten}{6}{section.5}\protected@file@percent }
\@writefile{toc}{\defcounter {refsection}{0}\relax }\@writefile{toc}{\contentsline {subsection}{\numberline {5.1}Teil 1 Geodatenkatalog Hessen}{6}{subsection.5.1}\protected@file@percent }
\@writefile{lof}{\defcounter {refsection}{0}\relax }\@writefile{lof}{\contentsline {figure}{\numberline {4}{\ignorespaces Suche nach Bebauungsplänen welche als OpenData verfügbar sein.  (Screenshot: Geoportal Hessen)\relax }}{6}{figure.caption.5}\protected@file@percent }
\newlabel{GeoportalHessen}{{4}{6}{Suche nach Bebauungsplänen welche als OpenData verfügbar sein.\\ (Screenshot: Geoportal Hessen)\relax }{figure.caption.5}{}}
\@writefile{toc}{\defcounter {refsection}{0}\relax }\@writefile{toc}{\contentsline {subsection}{\numberline {5.2}Teil 2 Geodatenkatalog.de}{6}{subsection.5.2}\protected@file@percent }
\@writefile{lof}{\defcounter {refsection}{0}\relax }\@writefile{lof}{\contentsline {figure}{\numberline {5}{\ignorespaces Ergebnisse der Suche nach Bodenrichtwerten für die Stadt Mainz   (Screenshot: Geoportal.de)\relax }}{7}{figure.caption.6}\protected@file@percent }
\newlabel{GeoportalDE}{{5}{7}{Ergebnisse der Suche nach Bodenrichtwerten für die Stadt Mainz \\ (Screenshot: Geoportal.de)\relax }{figure.caption.6}{}}
\@writefile{toc}{\defcounter {refsection}{0}\relax }\@writefile{toc}{\contentsline {subsection}{\numberline {5.3}Teil 3 FAO}{7}{subsection.5.3}\protected@file@percent }
\@writefile{lof}{\defcounter {refsection}{0}\relax }\@writefile{lof}{\contentsline {figure}{\numberline {6}{\ignorespaces  Der Datensatz „GLOBAL MAP OF ARIDITY“ im WebViewer.   (Screenshot: FAO)\relax }}{7}{figure.caption.7}\protected@file@percent }
\newlabel{MapFAO}{{6}{7}{Der Datensatz „GLOBAL MAP OF ARIDITY“ im WebViewer. \\ (Screenshot: FAO)\relax }{figure.caption.7}{}}
\@writefile{lof}{\defcounter {refsection}{0}\relax }\@writefile{lof}{\contentsline {figure}{\numberline {7}{\ignorespaces Der Datensatz „GLOBAL MAP OF ARIDITY“ in Google Earth Pro.   (Screenshot: Google Earth Pro)\relax }}{8}{figure.caption.8}\protected@file@percent }
\newlabel{MapFAOGoogle}{{7}{8}{Der Datensatz „GLOBAL MAP OF ARIDITY“ in Google Earth Pro. \\ (Screenshot: Google Earth Pro)\relax }{figure.caption.8}{}}
\@writefile{lof}{\defcounter {refsection}{0}\relax }\@writefile{lof}{\contentsline {figure}{\numberline {8}{\ignorespaces Advanced Search mit 504:Gateway time-out Fehlermeldung   (Screenshot: FAO)\relax }}{8}{figure.caption.9}\protected@file@percent }
\newlabel{FAOError}{{8}{8}{Advanced Search mit 504:Gateway time-out Fehlermeldung \\ (Screenshot: FAO)\relax }{figure.caption.9}{}}
\@writefile{toc}{\defcounter {refsection}{0}\relax }\@writefile{toc}{\contentsline {section}{\numberline {6}Feedback}{9}{section.6}\protected@file@percent }
\@writefile{lof}{\defcounter {refsection}{0}\relax }\@writefile{lof}{\contentsline {figure}{\numberline {9}{\ignorespaces WMS-Dienste des Geoportal Hessens sind überlastet.   (Screenshot: Geoportal Hessen)\relax }}{9}{figure.caption.10}\protected@file@percent }
\newlabel{HessenError}{{9}{9}{WMS-Dienste des Geoportal Hessens sind überlastet. \\ (Screenshot: Geoportal Hessen)\relax }{figure.caption.10}{}}
\abx@aux@refcontextdefaultsdone
\abx@aux@defaultrefcontext{0}{Bereitstellung}{nty/global//global/global}
