\relax 
\providecommand\hyper@newdestlabel[2]{}
\providecommand*\new@tpo@label[2]{}
\catcode `"\active 
\bibstyle{unsrt}
\abx@aux@refcontext{nty/global//global/global}
\AC@reset@newl@bel
\providecommand\HyperFirstAtBeginDocument{\AtBeginDocument}
\HyperFirstAtBeginDocument{\ifx\hyper@anchor\@undefined
\global\let\oldcontentsline\contentsline
\gdef\contentsline#1#2#3#4{\oldcontentsline{#1}{#2}{#3}}
\global\let\oldnewlabel\newlabel
\gdef\newlabel#1#2{\newlabelxx{#1}#2}
\gdef\newlabelxx#1#2#3#4#5#6{\oldnewlabel{#1}{{#2}{#3}}}
\AtEndDocument{\ifx\hyper@anchor\@undefined
\let\contentsline\oldcontentsline
\let\newlabel\oldnewlabel
\fi}
\fi}
\global\let\hyper@last\relax 
\gdef\HyperFirstAtBeginDocument#1{#1}
\providecommand\HyField@AuxAddToFields[1]{}
\providecommand\HyField@AuxAddToCoFields[2]{}
\@writefile{toc}{\boolfalse {citerequest}\boolfalse {citetracker}\boolfalse {pagetracker}\boolfalse {backtracker}\relax }
\@writefile{lof}{\boolfalse {citerequest}\boolfalse {citetracker}\boolfalse {pagetracker}\boolfalse {backtracker}\relax }
\@writefile{lot}{\boolfalse {citerequest}\boolfalse {citetracker}\boolfalse {pagetracker}\boolfalse {backtracker}\relax }
\babel@aux{ngerman}{}
\newacro{CSW}[\AC@hyperlink{CSW}{CSW}]{Catalogue Services for the Web}
\newacro{GDI}[\AC@hyperlink{GDI}{GDI}]{Geodateninfrastruktur}
\newacro{INSPIRE}[\AC@hyperlink{INSPIRE}{INSPIRE}]{Infrastructure for Spatial Information in Europe}
\newacro{MIS}[\AC@hyperlink{MIS}{MIS}]{Metadateninformationssystem}
\newacro{OGC}[\AC@hyperlink{OGC}{OGC}]{Open Geospatial Consortium}
\newacro{TMS}[\AC@hyperlink{TMS}{TMS}]{Tile Map Service}
\newacro{WFS}[\AC@hyperlink{WFS}{WFS}]{Web Feature Service}
\newacro{WMS}[\AC@hyperlink{WMS}{WMS}]{Web Map Service}
\newacro{WMTS}[\AC@hyperlink{WMTS}{WMTS}]{Web Map Tile Service}
\abx@aux@cite{GDI-InfoTour-Komponenten}
\abx@aux@segm{0}{0}{GDI-InfoTour-Komponenten}
\@writefile{toc}{\defcounter {refsection}{0}\relax }\@writefile{toc}{\contentsline {chapter}{\numberline {1}Architekturmodell einer GDI}{3}{chapter.1}}
\@writefile{lof}{\defcounter {refsection}{0}\relax }\@writefile{lof}{\addvspace {10\p@ }}
\@writefile{lot}{\defcounter {refsection}{0}\relax }\@writefile{lot}{\addvspace {10\p@ }}
\@writefile{lof}{\defcounter {refsection}{0}\relax }\@writefile{lof}{\contentsline {figure}{\numberline {1.1}{\ignorespaces Struktur einer GDI in Nutzer, Geoportal und Dienste samt Daten   (Quelle: GDI-InfoTour)\relax }}{3}{figure.caption.2}}
\providecommand*\caption@xref[2]{\@setref\relax\@undefined{#1}}
\newlabel{Struktur-einer-GDI}{{1.1}{3}{Struktur einer GDI in Nutzer, Geoportal und Dienste samt Daten \\ (Quelle: GDI-InfoTour)\relax }{figure.caption.2}{}}
\abx@aux@cite{Architektur-GDI:WMS}
\abx@aux@segm{0}{0}{Architektur-GDI:WMS}
\@writefile{lof}{\defcounter {refsection}{0}\relax }\@writefile{lof}{\contentsline {figure}{\numberline {1.2}{\ignorespaces Graphische Oberfl\IeC {\"a}che des Geoviewers von NRW, als zus\IeC {\"a}tzlicher Layer wurde ein externer WMS-Dienst eingebunden.   (Quelle: Geoportal NRW)\relax }}{4}{figure.caption.3}}
\newlabel{Geoviewer-NRW}{{1.2}{4}{Graphische Oberfläche des Geoviewers von NRW, als zusätzlicher Layer wurde ein externer WMS-Dienst eingebunden. \\ (Quelle: Geoportal NRW)\relax }{figure.caption.3}{}}
\abx@aux@cite{Geodienste-im-Internet-ein-Leitpfaden}
\abx@aux@segm{0}{0}{Geodienste-im-Internet-ein-Leitpfaden}
\@writefile{lof}{\defcounter {refsection}{0}\relax }\@writefile{lof}{\contentsline {figure}{\numberline {1.3}{\ignorespaces Graphische Oberfl\IeC {\"a}che von ArcGIS-Online, links eine Auflistung des Inhalts der Karte, Mitte-Oben Kartendarstellung mit Detailinformationen zu einem Feature und darunter die Attributtabelle aller Verkehrsunf\IeC {\"a}lle 2019.   (Quelle: ArcGIS-Online)\relax }}{5}{figure.caption.4}}
\newlabel{ArcGIS-Online}{{1.3}{5}{Graphische Oberfläche von ArcGIS-Online, links eine Auflistung des Inhalts der Karte, Mitte-Oben Kartendarstellung mit Detailinformationen zu einem Feature und darunter die Attributtabelle aller Verkehrsunfälle 2019. \\ (Quelle: ArcGIS-Online)\relax }{figure.caption.4}{}}
\abx@aux@cite{Umweltdaten-und-INSPIRE}
\abx@aux@segm{0}{0}{Umweltdaten-und-INSPIRE}
\@writefile{toc}{\defcounter {refsection}{0}\relax }\@writefile{toc}{\contentsline {chapter}{\numberline {2}Vor und Nachteile einer GDI}{6}{chapter.2}}
\@writefile{lof}{\defcounter {refsection}{0}\relax }\@writefile{lof}{\addvspace {10\p@ }}
\@writefile{lot}{\defcounter {refsection}{0}\relax }\@writefile{lot}{\addvspace {10\p@ }}
\@writefile{lof}{\defcounter {refsection}{0}\relax }\@writefile{lof}{\contentsline {figure}{\numberline {2.1}{\ignorespaces Fehlermeldung des Geoportal Hessens   Quelle: Screenshot selbst erstellt am 03.10.2020\relax }}{7}{figure.caption.5}}
\newlabel{Fehlermeldung-Geoportal-Hessen}{{2.1}{7}{Fehlermeldung des Geoportal Hessens \\ Quelle: Screenshot selbst erstellt am 03.10.2020\relax }{figure.caption.5}{}}
\abx@aux@cite{About-INSPIRE}
\abx@aux@segm{0}{0}{About-INSPIRE}
\abx@aux@cite{INSPIRE-Implementing-Rules}
\abx@aux@segm{0}{0}{INSPIRE-Implementing-Rules}
\abx@aux@cite{GDI-Sachsen-INSPIRE}
\abx@aux@segm{0}{0}{GDI-Sachsen-INSPIRE}
\@writefile{toc}{\defcounter {refsection}{0}\relax }\@writefile{toc}{\contentsline {chapter}{\numberline {3}Beschreibung von INSPIRE}{8}{chapter.3}}
\@writefile{lof}{\defcounter {refsection}{0}\relax }\@writefile{lof}{\addvspace {10\p@ }}
\@writefile{lot}{\defcounter {refsection}{0}\relax }\@writefile{lot}{\addvspace {10\p@ }}
\@writefile{toc}{\defcounter {refsection}{0}\relax }\@writefile{toc}{\contentsline {chapter}{\numberline {4}Webportale}{9}{chapter.4}}
\@writefile{lof}{\defcounter {refsection}{0}\relax }\@writefile{lof}{\addvspace {10\p@ }}
\@writefile{lot}{\defcounter {refsection}{0}\relax }\@writefile{lot}{\addvspace {10\p@ }}
\@writefile{toc}{\defcounter {refsection}{0}\relax }\@writefile{toc}{\contentsline {section}{\numberline {4.1}Webportal: Denkmalschutz}{9}{section.4.1}}
\newlabel{Denkmalschutz}{{4.1}{9}{Webportal: Denkmalschutz}{section.4.1}{}}
\@writefile{toc}{\defcounter {refsection}{0}\relax }\@writefile{toc}{\contentsline {subsection}{\numberline {4.1.1}Allgemeines}{9}{subsection.4.1.1}}
\@writefile{toc}{\defcounter {refsection}{0}\relax }\@writefile{toc}{\contentsline {subsection}{\numberline {4.1.2}Fragestellung 1}{9}{subsection.4.1.2}}
\@writefile{lof}{\defcounter {refsection}{0}\relax }\@writefile{lof}{\contentsline {figure}{\numberline {4.1}{\ignorespaces Darstellung des Brunnens am Marktplatz.   (Quelle: Kulturdenkm\IeC {\"a}ler in Hessen)\relax }}{9}{figure.caption.6}}
\newlabel{Denkmalschutz-1}{{4.1}{9}{Darstellung des Brunnens am Marktplatz. \\ (Quelle: Kulturdenkmäler in Hessen)\relax }{figure.caption.6}{}}
\@writefile{toc}{\defcounter {refsection}{0}\relax }\@writefile{toc}{\contentsline {subsection}{\numberline {4.1.3}Fragestellung 2}{10}{subsection.4.1.3}}
\@writefile{lof}{\defcounter {refsection}{0}\relax }\@writefile{lof}{\contentsline {figure}{\numberline {4.2}{\ignorespaces Tabellarische \IeC {\"U}bersicht der Suchergebnisse   (Quelle: Kulturdenkm\IeC {\"a}ler in Hessen)\relax }}{10}{figure.caption.7}}
\newlabel{Denkmalschutz-2}{{4.2}{10}{Tabellarische Übersicht der Suchergebnisse \\ (Quelle: Kulturdenkmäler in Hessen)\relax }{figure.caption.7}{}}
\@writefile{toc}{\defcounter {refsection}{0}\relax }\@writefile{toc}{\contentsline {section}{\numberline {4.2}Webportal: Naturschutz}{11}{section.4.2}}
\newlabel{Naturschutz}{{4.2}{11}{Webportal: Naturschutz}{section.4.2}{}}
\@writefile{toc}{\defcounter {refsection}{0}\relax }\@writefile{toc}{\contentsline {subsection}{\numberline {4.2.1}Allgemeines}{11}{subsection.4.2.1}}
\@writefile{toc}{\defcounter {refsection}{0}\relax }\@writefile{toc}{\contentsline {subsection}{\numberline {4.2.2}Fragestellung 1}{11}{subsection.4.2.2}}
\@writefile{lof}{\defcounter {refsection}{0}\relax }\@writefile{lof}{\contentsline {figure}{\numberline {4.3}{\ignorespaces Artennachweis und Identifizieren des Layers mit den Informationen \IeC {\"u}ber Biber im Natureg Viewer   (Quelle: Hessisches Naturschutzinformationssystem)\relax }}{11}{figure.caption.8}}
\newlabel{Naturschutz-1}{{4.3}{11}{Artennachweis und Identifizieren des Layers mit den Informationen über Biber im Natureg Viewer \\ (Quelle: Hessisches Naturschutzinformationssystem)\relax }{figure.caption.8}{}}
\@writefile{toc}{\defcounter {refsection}{0}\relax }\@writefile{toc}{\contentsline {subsection}{\numberline {4.2.3}Fragestellung 2}{12}{subsection.4.2.3}}
\@writefile{lof}{\defcounter {refsection}{0}\relax }\@writefile{lof}{\contentsline {figure}{\numberline {4.4}{\ignorespaces Identifizieren des Layers mit den Informationen \IeC {\"u}ber Welse im Natureg Viewer   (Quelle: Hessisches Naturschutzinformationssystem)\relax }}{12}{figure.caption.9}}
\newlabel{Naturschutz-2}{{4.4}{12}{Identifizieren des Layers mit den Informationen über Welse im Natureg Viewer \\ (Quelle: Hessisches Naturschutzinformationssystem)\relax }{figure.caption.9}{}}
\@writefile{toc}{\defcounter {refsection}{0}\relax }\@writefile{toc}{\contentsline {subsection}{\numberline {4.2.4}Fragestellung 3}{13}{subsection.4.2.4}}
\@writefile{lof}{\defcounter {refsection}{0}\relax }\@writefile{lof}{\contentsline {figure}{\numberline {4.5}{\ignorespaces Identifizieren des Layers mit den Informationen \IeC {\"u}ber Welse im Natureg Viewer   (Quelle: Hessisches Naturschutzinformationssystem)\relax }}{13}{figure.caption.10}}
\newlabel{Naturschutz-3}{{4.5}{13}{Identifizieren des Layers mit den Informationen über Welse im Natureg Viewer \\ (Quelle: Hessisches Naturschutzinformationssystem)\relax }{figure.caption.10}{}}
\@writefile{toc}{\defcounter {refsection}{0}\relax }\@writefile{toc}{\contentsline {section}{\numberline {4.3}Webportal: Regionalverband}{14}{section.4.3}}
\@writefile{toc}{\defcounter {refsection}{0}\relax }\@writefile{toc}{\contentsline {subsection}{\numberline {4.3.1}Allgemeines}{14}{subsection.4.3.1}}
\@writefile{toc}{\defcounter {refsection}{0}\relax }\@writefile{toc}{\contentsline {subsection}{\numberline {4.3.2}Fragestellung 1}{14}{subsection.4.3.2}}
\@writefile{lof}{\defcounter {refsection}{0}\relax }\@writefile{lof}{\contentsline {figure}{\numberline {4.6}{\ignorespaces Kulturlandschaftskataster mit einem Baudenkmal   (Quelle: Regionalverband Frankfurt Rhein Main)\relax }}{14}{figure.caption.11}}
\newlabel{Regionalverband-1}{{4.6}{14}{Kulturlandschaftskataster mit einem Baudenkmal \\ (Quelle: Regionalverband Frankfurt Rhein Main)\relax }{figure.caption.11}{}}
\@writefile{toc}{\defcounter {refsection}{0}\relax }\@writefile{toc}{\contentsline {subsection}{\numberline {4.3.3}Fragestellung 2}{15}{subsection.4.3.3}}
\@writefile{lof}{\defcounter {refsection}{0}\relax }\@writefile{lof}{\contentsline {figure}{\numberline {4.7}{\ignorespaces Bebauungspl\IeC {\"a}ne des Regionalverband Frankfurt   (Quelle: Regionalverband Frankfurt Rhein Main)\relax }}{15}{figure.caption.12}}
\newlabel{Regionalverband-2}{{4.7}{15}{Bebauungspläne des Regionalverband Frankfurt \\ (Quelle: Regionalverband Frankfurt Rhein Main)\relax }{figure.caption.12}{}}
\@writefile{toc}{\defcounter {refsection}{0}\relax }\@writefile{toc}{\contentsline {subsection}{\numberline {4.3.4}Fragestellung 3}{15}{subsection.4.3.4}}
\@writefile{lof}{\defcounter {refsection}{0}\relax }\@writefile{lof}{\contentsline {figure}{\numberline {4.8}{\ignorespaces Hauptkarte des Fl\IeC {\"a}chennutzungsplan mit Legende   (Quelle: Regionalverband Frankfurt Rhein Main)\relax }}{15}{figure.caption.13}}
\newlabel{Regionalverband-3}{{4.8}{15}{Hauptkarte des Flächennutzungsplan mit Legende \\ (Quelle: Regionalverband Frankfurt Rhein Main)\relax }{figure.caption.13}{}}
\@writefile{toc}{\defcounter {refsection}{0}\relax }\@writefile{toc}{\contentsline {section}{\numberline {4.4}Webportal: Radrouten}{16}{section.4.4}}
\@writefile{toc}{\defcounter {refsection}{0}\relax }\@writefile{toc}{\contentsline {subsection}{\numberline {4.4.1}Allgemeines}{16}{subsection.4.4.1}}
\@writefile{toc}{\defcounter {refsection}{0}\relax }\@writefile{toc}{\contentsline {subsection}{\numberline {4.4.2}Fragestellung 1}{16}{subsection.4.4.2}}
\@writefile{lof}{\defcounter {refsection}{0}\relax }\@writefile{lof}{\contentsline {figure}{\numberline {4.9}{\ignorespaces Geplante Radtour von Hemsbach nach Worms mit Sehensw\IeC {\"u}rdigkeiten   (Quelle: Radtouren Planer Hessen)\relax }}{16}{figure.caption.14}}
\newlabel{Radrouten}{{4.9}{16}{Geplante Radtour von Hemsbach nach Worms mit Sehenswürdigkeiten \\ (Quelle: Radtouren Planer Hessen)\relax }{figure.caption.14}{}}
\@writefile{toc}{\defcounter {refsection}{0}\relax }\@writefile{toc}{\contentsline {section}{\numberline {4.5}Webportal: COVID-19-Dashboard}{17}{section.4.5}}
\@writefile{toc}{\defcounter {refsection}{0}\relax }\@writefile{toc}{\contentsline {subsection}{\numberline {4.5.1}Allgemeines}{17}{subsection.4.5.1}}
\@writefile{toc}{\defcounter {refsection}{0}\relax }\@writefile{toc}{\contentsline {subsection}{\numberline {4.5.2}Fragestellung 1}{17}{subsection.4.5.2}}
\@writefile{lof}{\defcounter {refsection}{0}\relax }\@writefile{lof}{\contentsline {figure}{\numberline {4.10}{\ignorespaces COVID-19-Dashboard mit dem Informationen \IeC {\"u}ber den Landkreis (Stand: 03.10.2020)   (Quelle: ESRI COVID-19-Dashboard)\relax }}{17}{figure.caption.15}}
\newlabel{Dashboard}{{4.10}{17}{COVID-19-Dashboard mit dem Informationen über den Landkreis (Stand: 03.10.2020) \\ (Quelle: ESRI COVID-19-Dashboard)\relax }{figure.caption.15}{}}
\@writefile{toc}{\defcounter {refsection}{0}\relax }\@writefile{toc}{\contentsline {section}{\numberline {4.6}Webportal: M\IeC {\"a}ngelmelder Frankfurt am Main}{18}{section.4.6}}
\@writefile{toc}{\defcounter {refsection}{0}\relax }\@writefile{toc}{\contentsline {subsection}{\numberline {4.6.1}Allgemeines}{18}{subsection.4.6.1}}
\@writefile{toc}{\defcounter {refsection}{0}\relax }\@writefile{toc}{\contentsline {subsection}{\numberline {4.6.2}Fragestellung 1}{18}{subsection.4.6.2}}
\@writefile{toc}{\defcounter {refsection}{0}\relax }\@writefile{toc}{\contentsline {subsection}{\numberline {4.6.3}Fragestellung 2}{18}{subsection.4.6.3}}
\@writefile{toc}{\defcounter {refsection}{0}\relax }\@writefile{toc}{\contentsline {subsection}{\numberline {4.6.4}Fragestellung 3}{18}{subsection.4.6.4}}
\@writefile{lof}{\defcounter {refsection}{0}\relax }\@writefile{lof}{\contentsline {figure}{\numberline {4.11}{\ignorespaces Benutzeroberfl\IeC {\"a}che um einen M\IeC {\"a}ngel zu melden, mit Anzahl der m\IeC {\"o}glichen Bilder   (Quelle: M\IeC {\"a}ngelmelder Frankfurt am Main)\relax }}{18}{figure.caption.16}}
\newlabel{Maengelmelder}{{4.11}{18}{Benutzeroberfläche um einen Mängel zu melden, mit Anzahl der möglichen Bilder \\ (Quelle: Mängelmelder Frankfurt am Main)\relax }{figure.caption.16}{}}
\@writefile{toc}{\defcounter {refsection}{0}\relax }\@writefile{toc}{\contentsline {chapter}{\numberline {5}Feedback}{19}{chapter.5}}
\@writefile{lof}{\defcounter {refsection}{0}\relax }\@writefile{lof}{\addvspace {10\p@ }}
\@writefile{lot}{\defcounter {refsection}{0}\relax }\@writefile{lot}{\addvspace {10\p@ }}
\abx@aux@refcontextdefaultsdone
\abx@aux@defaultrefcontext{0}{Architektur-GDI:WMS}{nty/global//global/global}
\abx@aux@defaultrefcontext{0}{About-INSPIRE}{nty/global//global/global}
\abx@aux@defaultrefcontext{0}{INSPIRE-Implementing-Rules}{nty/global//global/global}
\abx@aux@defaultrefcontext{0}{Geodienste-im-Internet-ein-Leitpfaden}{nty/global//global/global}
\abx@aux@defaultrefcontext{0}{GDI-Sachsen-INSPIRE}{nty/global//global/global}
\abx@aux@defaultrefcontext{0}{Umweltdaten-und-INSPIRE}{nty/global//global/global}
\abx@aux@defaultrefcontext{0}{GDI-InfoTour-Komponenten}{nty/global//global/global}
\global\@namedef{scr@dte@chapter@lastmaxnumwidth}{10.85587pt}
\global\@namedef{scr@dte@section@lastmaxnumwidth}{18.26904pt}
\global\@namedef{scr@dte@subsection@lastmaxnumwidth}{26.73907pt}
