\relax 
\providecommand\hyper@newdestlabel[2]{}
\providecommand*\new@tpo@label[2]{}
\catcode `"\active 
\bibstyle{unsrt}
\abx@aux@refcontext{nty/global//global/global}
\AC@reset@newl@bel
\providecommand\HyperFirstAtBeginDocument{\AtBeginDocument}
\HyperFirstAtBeginDocument{\ifx\hyper@anchor\@undefined
\global\let\oldcontentsline\contentsline
\gdef\contentsline#1#2#3#4{\oldcontentsline{#1}{#2}{#3}}
\global\let\oldnewlabel\newlabel
\gdef\newlabel#1#2{\newlabelxx{#1}#2}
\gdef\newlabelxx#1#2#3#4#5#6{\oldnewlabel{#1}{{#2}{#3}}}
\AtEndDocument{\ifx\hyper@anchor\@undefined
\let\contentsline\oldcontentsline
\let\newlabel\oldnewlabel
\fi}
\fi}
\global\let\hyper@last\relax 
\gdef\HyperFirstAtBeginDocument#1{#1}
\providecommand\HyField@AuxAddToFields[1]{}
\providecommand\HyField@AuxAddToCoFields[2]{}
\@writefile{toc}{\boolfalse {citerequest}\boolfalse {citetracker}\boolfalse {pagetracker}\boolfalse {backtracker}\relax }
\@writefile{lof}{\boolfalse {citerequest}\boolfalse {citetracker}\boolfalse {pagetracker}\boolfalse {backtracker}\relax }
\@writefile{lot}{\boolfalse {citerequest}\boolfalse {citetracker}\boolfalse {pagetracker}\boolfalse {backtracker}\relax }
\babel@aux{ngerman}{}
\abx@aux@cite{ESRI-Geoportal}
\abx@aux@segm{0}{0}{ESRI-Geoportal}
\abx@aux@segm{0}{0}{ESRI-Geoportal}
\@writefile{toc}{\defcounter {refsection}{0}\relax }\@writefile{toc}{\contentsline {chapter}{\numberline {1}Beschreibung: Geoportal}{3}{chapter.1}}
\@writefile{lof}{\defcounter {refsection}{0}\relax }\@writefile{lof}{\addvspace {10\p@ }}
\@writefile{lot}{\defcounter {refsection}{0}\relax }\@writefile{lot}{\addvspace {10\p@ }}
\@writefile{lof}{\defcounter {refsection}{0}\relax }\@writefile{lof}{\contentsline {figure}{\numberline {1.1}{\ignorespaces Veranschaulichung der einzelnen Beteiligten mitsamt T\IeC {\"a}tigkeiten   (Quelle: ESRI White Paper Geoportal Technology \cite {ESRI-Geoportal})\relax }}{3}{figure.caption.2}}
\providecommand*\caption@xref[2]{\@setref\relax\@undefined{#1}}
\newlabel{Denkmalschutz-1}{{1.1}{3}{Veranschaulichung der einzelnen Beteiligten mitsamt Tätigkeiten \\ (Quelle: ESRI White Paper Geoportal Technology \cite {ESRI-Geoportal})\relax }{figure.caption.2}{}}
\abx@aux@cite{LGLN-Komponenten-Geoportal}
\abx@aux@segm{0}{0}{LGLN-Komponenten-Geoportal}
\abx@aux@cite{Hueben-Anforderungen-Geoportal}
\abx@aux@segm{0}{0}{Hueben-Anforderungen-Geoportal}
\abx@aux@cite{Hueben-Realisierung-Geoportal}
\abx@aux@segm{0}{0}{Hueben-Realisierung-Geoportal}
\abx@aux@segm{0}{0}{Hueben-Realisierung-Geoportal}
\abx@aux@segm{0}{0}{Hueben-Realisierung-Geoportal}
\@writefile{toc}{\defcounter {refsection}{0}\relax }\@writefile{toc}{\contentsline {chapter}{\numberline {2}Komponenten eines Geoportals}{4}{chapter.2}}
\@writefile{lof}{\defcounter {refsection}{0}\relax }\@writefile{lof}{\addvspace {10\p@ }}
\@writefile{lot}{\defcounter {refsection}{0}\relax }\@writefile{lot}{\addvspace {10\p@ }}
\abx@aux@segm{0}{0}{Hueben-Anforderungen-Geoportal}
\abx@aux@segm{0}{0}{Hueben-Anforderungen-Geoportal}
\@writefile{toc}{\defcounter {refsection}{0}\relax }\@writefile{toc}{\contentsline {chapter}{\numberline {3}Frageb\IeC {\"o}gen zu Geoportalen}{6}{chapter.3}}
\@writefile{lof}{\defcounter {refsection}{0}\relax }\@writefile{lof}{\addvspace {10\p@ }}
\@writefile{lot}{\defcounter {refsection}{0}\relax }\@writefile{lot}{\addvspace {10\p@ }}
\@writefile{toc}{\defcounter {refsection}{0}\relax }\@writefile{toc}{\contentsline {chapter}{\numberline {4}Bestes Geoportal}{11}{chapter.4}}
\@writefile{lof}{\defcounter {refsection}{0}\relax }\@writefile{lof}{\addvspace {10\p@ }}
\@writefile{lot}{\defcounter {refsection}{0}\relax }\@writefile{lot}{\addvspace {10\p@ }}
\@writefile{lof}{\defcounter {refsection}{0}\relax }\@writefile{lof}{\contentsline {figure}{\numberline {4.1}{\ignorespaces Fehlermeldung beim Hinzuf\IeC {\"u}gen zur Karte   (Quelle: Geoportal Hessen, aufgerufen am 20.10.2020)\relax }}{11}{figure.caption.7}}
\newlabel{Hessen-error}{{4.1}{11}{Fehlermeldung beim Hinzufügen zur Karte \\ (Quelle: Geoportal Hessen, aufgerufen am 20.10.2020)\relax }{figure.caption.7}{}}
\@writefile{toc}{\defcounter {refsection}{0}\relax }\@writefile{toc}{\contentsline {chapter}{\numberline {5}Feedback}{12}{chapter.5}}
\@writefile{lof}{\defcounter {refsection}{0}\relax }\@writefile{lof}{\addvspace {10\p@ }}
\@writefile{lot}{\defcounter {refsection}{0}\relax }\@writefile{lot}{\addvspace {10\p@ }}
\@writefile{lof}{\defcounter {refsection}{0}\relax }\@writefile{lof}{\contentsline {figure}{\numberline {5.1}{\ignorespaces Einzelne Layer des ArcGIS-Servers in ArcMap\relax }}{12}{figure.caption.8}}
\newlabel{ArcGIS-Server}{{5.1}{12}{Einzelne Layer des ArcGIS-Servers in ArcMap\relax }{figure.caption.8}{}}
\abx@aux@refcontextdefaultsdone
\abx@aux@defaultrefcontext{0}{ESRI-Geoportal}{nty/global//global/global}
\abx@aux@defaultrefcontext{0}{LGLN-Komponenten-Geoportal}{nty/global//global/global}
\abx@aux@defaultrefcontext{0}{Hueben-Anforderungen-Geoportal}{nty/global//global/global}
\abx@aux@defaultrefcontext{0}{Hueben-Realisierung-Geoportal}{nty/global//global/global}
\global\@namedef{scr@dte@chapter@lastmaxnumwidth}{12.14694pt}
