\BOOKMARK [0][-]{chapter.1}{Beschreibung: Geoportal}{}% 1
\BOOKMARK [0][-]{chapter.2}{Komponenten eines Geoportals}{}% 2
\BOOKMARK [0][-]{chapter.3}{Frageb\366gen zu Geoportalen}{}% 3
\BOOKMARK [0][-]{chapter.4}{Bestes Geoportal}{}% 4
\BOOKMARK [0][-]{chapter.5}{Feedback}{}% 5
