\boolfalse {citerequest}\boolfalse {citetracker}\boolfalse {pagetracker}\boolfalse {backtracker}\relax 
\babel@toc {ngerman}{}
\defcounter {refsection}{0}\relax 
\contentsline {chapter}{\numberline {1}Beschreibung: Geoportal}{3}{chapter.1}
\defcounter {refsection}{0}\relax 
\contentsline {chapter}{\numberline {2}Komponenten eines Geoportals}{4}{chapter.2}
\defcounter {refsection}{0}\relax 
\contentsline {chapter}{\numberline {3}Frageb\IeC {\"o}gen zu Geoportalen}{6}{chapter.3}
\defcounter {refsection}{0}\relax 
\contentsline {chapter}{\numberline {4}Bestes Geoportal}{11}{chapter.4}
\defcounter {refsection}{0}\relax 
\contentsline {chapter}{\numberline {5}Feedback}{12}{chapter.5}
