\boolfalse {citerequest}\boolfalse {citetracker}\boolfalse {pagetracker}\boolfalse {backtracker}\relax 
\babel@toc {ngerman}{}
\defcounter {refsection}{0}\relax 
\contentsline {chapter}{\numberline {1}\IeC {\"U}berschrift}{3}{chapter.1}
\defcounter {refsection}{0}\relax 
\contentsline {section}{\numberline {1.1}Unter\IeC {\"u}berschrift}{3}{section.1.1}
