[0] Config.pm:302> INFO - This is Biber 2.9
[0] Config.pm:305> INFO - Logfile is 'Wunderlich_Modul2.blg'
[26] biber:313> INFO - === Mi Okt 14, 2020, 12:22:18
[47] Biber.pm:371> INFO - Reading 'Wunderlich_Modul2.bcf'
[100] Biber.pm:857> INFO - Found 0 citekeys in bib section 0
[105] Utils.pm:169> WARN - The file 'Wunderlich_Modul2.bcf' does not contain any citations!
[112] bbl.pm:617> INFO - Writing 'Wunderlich_Modul2.bbl' with encoding 'UTF-8'
[113] bbl.pm:720> INFO - Output to Wunderlich_Modul2.bbl
[113] Biber.pm:110> INFO - WARNINGS: 1
