\relax 
\providecommand\hyper@newdestlabel[2]{}
\@nameuse{bbl@beforestart}
\catcode `"\active 
\providecommand*\new@tpo@label[2]{}
\providecommand\HyperFirstAtBeginDocument{\AtBeginDocument}
\HyperFirstAtBeginDocument{\ifx\hyper@anchor\@undefined
\global\let\oldcontentsline\contentsline
\gdef\contentsline#1#2#3#4{\oldcontentsline{#1}{#2}{#3}}
\global\let\oldnewlabel\newlabel
\gdef\newlabel#1#2{\newlabelxx{#1}#2}
\gdef\newlabelxx#1#2#3#4#5#6{\oldnewlabel{#1}{{#2}{#3}}}
\AtEndDocument{\ifx\hyper@anchor\@undefined
\let\contentsline\oldcontentsline
\let\newlabel\oldnewlabel
\fi}
\fi}
\global\let\hyper@last\relax 
\gdef\HyperFirstAtBeginDocument#1{#1}
\providecommand\HyField@AuxAddToFields[1]{}
\providecommand\HyField@AuxAddToCoFields[2]{}
\abx@aux@refcontext{nty/global//global/global}
\AC@reset@newl@bel
\@writefile{toc}{\boolfalse {citerequest}\boolfalse {citetracker}\boolfalse {pagetracker}\boolfalse {backtracker}\relax }
\@writefile{lof}{\boolfalse {citerequest}\boolfalse {citetracker}\boolfalse {pagetracker}\boolfalse {backtracker}\relax }
\@writefile{lot}{\boolfalse {citerequest}\boolfalse {citetracker}\boolfalse {pagetracker}\boolfalse {backtracker}\relax }
\babel@aux{ngerman}{}
\abx@aux@cite{GDI-DE-ProfilWMS}
\abx@aux@segm{0}{0}{GDI-DE-ProfilWMS}
\@writefile{toc}{\defcounter {refsection}{0}\relax }\@writefile{toc}{\contentsline {section}{\numberline {1}Einleitung}{2}{section.1}\protected@file@percent }
\@writefile{toc}{\defcounter {refsection}{0}\relax }\@writefile{toc}{\contentsline {section}{\numberline {2}Profil eines Dienstes}{2}{section.2}\protected@file@percent }
\@writefile{toc}{\defcounter {refsection}{0}\relax }\@writefile{toc}{\contentsline {section}{\numberline {3}Aufgabe, Operatoren und Parameter von WMS-Diensten}{3}{section.3}\protected@file@percent }
\@writefile{toc}{\defcounter {refsection}{0}\relax }\@writefile{toc}{\contentsline {subsection}{\numberline {3.1}Operatoren}{3}{subsection.3.1}\protected@file@percent }
\@writefile{toc}{\defcounter {refsection}{0}\relax }\@writefile{toc}{\contentsline {subsubsection}{\numberline {3.1.1}GetCapabilities}{3}{subsubsection.3.1.1}\protected@file@percent }
\@writefile{lof}{\defcounter {refsection}{0}\relax }\@writefile{lof}{\contentsline {figure}{\numberline {1}{\ignorespaces Darstellung des zurückgelieferten XML-Files im Webbrowser  (Datensatz: Vogelschutzgebiete des Geoportal Rheinland-Pfanz)\relax }}{4}{figure.caption.2}\protected@file@percent }
\providecommand*\caption@xref[2]{\@setref\relax\@undefined{#1}}
\newlabel{A2_XML}{{1}{4}{Darstellung des zurückgelieferten XML-Files im Webbrowser\\ (Datensatz: Vogelschutzgebiete des Geoportal Rheinland-Pfanz)\relax }{figure.caption.2}{}}
\@writefile{toc}{\defcounter {refsection}{0}\relax }\@writefile{toc}{\contentsline {subsubsection}{\numberline {3.1.2}GetMap}{5}{subsubsection.3.1.2}\protected@file@percent }
\@writefile{lof}{\defcounter {refsection}{0}\relax }\@writefile{lof}{\contentsline {figure}{\numberline {2}{\ignorespaces Ergebnis des Operators GetMap, gesamte Ausdehnung  (Datensatz: Vogelschutzgebiete des Geoportal Rheinland-Pfanz)\relax }}{5}{figure.caption.3}\protected@file@percent }
\newlabel{A2_GetMap}{{2}{5}{Ergebnis des Operators GetMap, gesamte Ausdehnung\\ (Datensatz: Vogelschutzgebiete des Geoportal Rheinland-Pfanz)\relax }{figure.caption.3}{}}
\@writefile{toc}{\defcounter {refsection}{0}\relax }\@writefile{toc}{\contentsline {subsubsection}{\numberline {3.1.3}GetFeatureInfo}{6}{subsubsection.3.1.3}\protected@file@percent }
\abx@aux@cite{WIKI-Dienstekomposition}
\abx@aux@segm{0}{0}{WIKI-Dienstekomposition}
\abx@aux@cite{UniGIS-Wandel}
\abx@aux@segm{0}{0}{UniGIS-Wandel}
\abx@aux@cite{Lanig-Zipf-WPS}
\abx@aux@segm{0}{0}{Lanig-Zipf-WPS}
\@writefile{toc}{\defcounter {refsection}{0}\relax }\@writefile{toc}{\contentsline {section}{\numberline {4}Orchestrierung von Diensten}{7}{section.4}\protected@file@percent }
\@writefile{lof}{\defcounter {refsection}{0}\relax }\@writefile{lof}{\contentsline {figure}{\numberline {3}{\ignorespaces Sequenzdiagramm des WPS Solarpotenzialanalyse  (Quelle: Standardkonforme Geodatenverarbeitung und Diensteorchestrierung)\relax }}{7}{figure.caption.4}\protected@file@percent }
\newlabel{A3_Sequenzdiagramm}{{3}{7}{Sequenzdiagramm des WPS Solarpotenzialanalyse\\ (Quelle: Standardkonforme Geodatenverarbeitung und Diensteorchestrierung)\relax }{figure.caption.4}{}}
\abx@aux@cite{GDI-DE-Newsletter}
\abx@aux@segm{0}{0}{GDI-DE-Newsletter}
\abx@aux@cite{GDI-DE-zentrales-Register}
\abx@aux@segm{0}{0}{GDI-DE-zentrales-Register}
\abx@aux@cite{GDI-DE-Registry}
\abx@aux@segm{0}{0}{GDI-DE-Registry}
\abx@aux@cite{GDI-DE-Registry}
\abx@aux@segm{0}{0}{GDI-DE-Registry}
\abx@aux@cite{GDI-DE-Registry}
\abx@aux@segm{0}{0}{GDI-DE-Registry}
\@writefile{toc}{\defcounter {refsection}{0}\relax }\@writefile{toc}{\contentsline {section}{\numberline {5}Registry im Rahmen einer GDI}{8}{section.5}\protected@file@percent }
\abx@aux@cite{UniGIS-Vector-Tiles}
\abx@aux@segm{0}{0}{UniGIS-Vector-Tiles}
\@writefile{toc}{\defcounter {refsection}{0}\relax }\@writefile{toc}{\contentsline {section}{\numberline {6}Übung}{9}{section.6}\protected@file@percent }
\@writefile{toc}{\defcounter {refsection}{0}\relax }\@writefile{toc}{\contentsline {subsection}{\numberline {6.1}Teil 1 - Einbinden zweier WMS in ArcGIS}{9}{subsection.6.1}\protected@file@percent }
\@writefile{toc}{\defcounter {refsection}{0}\relax }\@writefile{toc}{\contentsline {subsubsection}{\numberline {6.1.1}Können Sie Objekte selektieren sowie deren Geometrie und Symbologie ändern?}{9}{subsubsection.6.1.1}\protected@file@percent }
\@writefile{lof}{\defcounter {refsection}{0}\relax }\@writefile{lof}{\contentsline {figure}{\numberline {4}{\ignorespaces Visualisierung zweier WMS-Dienste   (Quelle: Screenshot von ArcMap)\relax }}{9}{figure.caption.5}\protected@file@percent }
\newlabel{UE_0}{{4}{9}{Visualisierung zweier WMS-Dienste \\ (Quelle: Screenshot von ArcMap)\relax }{figure.caption.5}{}}
\@writefile{toc}{\defcounter {refsection}{0}\relax }\@writefile{toc}{\contentsline {subsection}{\numberline {6.2}Teil 2 - WMS Operatoren}{10}{subsection.6.2}\protected@file@percent }
\@writefile{toc}{\defcounter {refsection}{0}\relax }\@writefile{toc}{\contentsline {subsubsection}{\numberline {6.2.1}GetCapabilities-Request - Vergleichen Sie die dargestellten Informationen mit denen des XML.}{10}{subsubsection.6.2.1}\protected@file@percent }
\@writefile{lof}{\defcounter {refsection}{0}\relax }\@writefile{lof}{\contentsline {figure}{\numberline {5}{\ignorespaces links XML und rechts HTML-Visualisierung im CapabilitiesViewer  (Quelle: Screenshot von VS-Code und Google Chrome)\relax }}{10}{figure.caption.6}\protected@file@percent }
\newlabel{UE_1}{{5}{10}{links XML und rechts HTML-Visualisierung im CapabilitiesViewer\\ (Quelle: Screenshot von VS-Code und Google Chrome)\relax }{figure.caption.6}{}}
\@writefile{toc}{\defcounter {refsection}{0}\relax }\@writefile{toc}{\contentsline {subsubsection}{\numberline {6.2.2}GetMap-Request - Änderungen an dem Aufruf}{11}{subsubsection.6.2.2}\protected@file@percent }
\@writefile{lof}{\defcounter {refsection}{0}\relax }\@writefile{lof}{\contentsline {figure}{\numberline {6}{\ignorespaces Links WMS eingeladen in ArcMap und rechts der WMS im Webbrowser  (Quelle: Screenshot links ArcMap und rechts Webbrowser)\relax }}{11}{figure.caption.7}\protected@file@percent }
\newlabel{UE_1-1}{{6}{11}{Links WMS eingeladen in ArcMap und rechts der WMS im Webbrowser\\ (Quelle: Screenshot links ArcMap und rechts Webbrowser)\relax }{figure.caption.7}{}}
\@writefile{toc}{\defcounter {refsection}{0}\relax }\@writefile{toc}{\contentsline {subsubsection}{\numberline {6.2.3}GetFeatureInfo-Request - Abfragen von FeatureInfos}{11}{subsubsection.6.2.3}\protected@file@percent }
\@writefile{lof}{\defcounter {refsection}{0}\relax }\@writefile{lof}{\contentsline {figure}{\numberline {7}{\ignorespaces ArcGIS-Server nicht erreichbar - 502 Fehler  (Quelle: Screenshot des Webbrowser)\relax }}{11}{figure.caption.8}\protected@file@percent }
\newlabel{UE_ERROR}{{7}{11}{ArcGIS-Server nicht erreichbar - 502 Fehler\\ (Quelle: Screenshot des Webbrowser)\relax }{figure.caption.8}{}}
\@writefile{lof}{\defcounter {refsection}{0}\relax }\@writefile{lof}{\contentsline {figure}{\numberline {8}{\ignorespaces Links FeatureInfo in ArcMap und rechts FeatureInfo im Webbrowser   (Quelle: Screenshot links ArcMap und rechts Webbrowser)\relax }}{12}{figure.caption.9}\protected@file@percent }
\newlabel{UE_2}{{8}{12}{Links FeatureInfo in ArcMap und rechts FeatureInfo im Webbrowser \\ (Quelle: Screenshot links ArcMap und rechts Webbrowser)\relax }{figure.caption.9}{}}
\@writefile{lof}{\defcounter {refsection}{0}\relax }\@writefile{lof}{\contentsline {figure}{\numberline {9}{\ignorespaces FeatureInfo-Fenster von ArcMap   (Quelle: Screenshot von ArcMap)\relax }}{12}{figure.caption.10}\protected@file@percent }
\newlabel{UE_3}{{9}{12}{FeatureInfo-Fenster von ArcMap \\ (Quelle: Screenshot von ArcMap)\relax }{figure.caption.10}{}}
\@writefile{toc}{\defcounter {refsection}{0}\relax }\@writefile{toc}{\contentsline {subsubsection}{\numberline {6.2.4}Was ist die Antwort auf eine GetCapabilities-Anfrage}{13}{subsubsection.6.2.4}\protected@file@percent }
\@writefile{toc}{\defcounter {refsection}{0}\relax }\@writefile{toc}{\contentsline {subsubsection}{\numberline {6.2.5}Was ist die Antwort auf eine GetCapabilities-Anfrage}{13}{subsubsection.6.2.5}\protected@file@percent }
\@writefile{toc}{\defcounter {refsection}{0}\relax }\@writefile{toc}{\contentsline {subsection}{\numberline {6.3}Teil 3 - WMS in Google Earth}{13}{subsection.6.3}\protected@file@percent }
\@writefile{lof}{\defcounter {refsection}{0}\relax }\@writefile{lof}{\contentsline {figure}{\numberline {10}{\ignorespaces Vogelschutzgebiete und Habitat-Gebiete in Google Earth  (Quelle: Screenshot von Google Earch Pro Desktop)\relax }}{13}{figure.caption.11}\protected@file@percent }
\newlabel{UE_4}{{10}{13}{Vogelschutzgebiete und Habitat-Gebiete in Google Earth\\ (Quelle: Screenshot von Google Earch Pro Desktop)\relax }{figure.caption.11}{}}
\@writefile{toc}{\defcounter {refsection}{0}\relax }\@writefile{toc}{\contentsline {subsection}{\numberline {6.4}Teil 4 - Einbinden zweier WMS in ArcGIS - Vertiefung}{14}{subsection.6.4}\protected@file@percent }
\@writefile{lof}{\defcounter {refsection}{0}\relax }\@writefile{lof}{\contentsline {figure}{\numberline {11}{\ignorespaces OSM-Daten und Flächennutzungspläne in ArcMap  (Quelle: Screenshot von ArcMap)\relax }}{14}{figure.caption.12}\protected@file@percent }
\newlabel{UE_5}{{11}{14}{OSM-Daten und Flächennutzungspläne in ArcMap\\ (Quelle: Screenshot von ArcMap)\relax }{figure.caption.12}{}}
\@writefile{toc}{\defcounter {refsection}{0}\relax }\@writefile{toc}{\contentsline {section}{\numberline {7}Feedback}{15}{section.7}\protected@file@percent }
\abx@aux@refcontextdefaultsdone
\abx@aux@defaultrefcontext{0}{UniGIS-Wandel}{nty/global//global/global}
\abx@aux@defaultrefcontext{0}{GDI-DE-Registry}{nty/global//global/global}
\abx@aux@defaultrefcontext{0}{GDI-DE-Newsletter}{nty/global//global/global}
\abx@aux@defaultrefcontext{0}{GDI-DE-ProfilWMS}{nty/global//global/global}
\abx@aux@defaultrefcontext{0}{UniGIS-Vector-Tiles}{nty/global//global/global}
\abx@aux@defaultrefcontext{0}{GDI-DE-zentrales-Register}{nty/global//global/global}
\abx@aux@defaultrefcontext{0}{Lanig-Zipf-WPS}{nty/global//global/global}
\abx@aux@defaultrefcontext{0}{WIKI-Dienstekomposition}{nty/global//global/global}
