% $ biblatex auxiliary file $
% $ biblatex bbl format version 3.1 $
% Do not modify the above lines!
%
% This is an auxiliary file used by the 'biblatex' package.
% This file may safely be deleted. It will be recreated by
% biber as required.
%
\begingroup
\makeatletter
\@ifundefined{ver@biblatex.sty}
  {\@latex@error
     {Missing 'biblatex' package}
     {The bibliography requires the 'biblatex' package.}
      \aftergroup\endinput}
  {}
\endgroup


\refsection{0}
  \datalist[entry]{nty/global//global/global}
    \entry{UniGIS-Wandel}{manual}{}
      \name{author}{1}{}{%
        {{hash=e7b22783c51b9c4f24a3e11a79a463fb}{%
           family={Brennecke},
           familyi={B\bibinitperiod},
           given={Christoph},
           giveni={C\bibinitperiod}}}%
      }
      \strng{namehash}{e7b22783c51b9c4f24a3e11a79a463fb}
      \strng{fullhash}{e7b22783c51b9c4f24a3e11a79a463fb}
      \strng{bibnamehash}{e7b22783c51b9c4f24a3e11a79a463fb}
      \strng{authorbibnamehash}{e7b22783c51b9c4f24a3e11a79a463fb}
      \strng{authornamehash}{e7b22783c51b9c4f24a3e11a79a463fb}
      \strng{authorfullhash}{e7b22783c51b9c4f24a3e11a79a463fb}
      \field{sortinit}{B}
      \field{sortinithash}{8de16967003c7207dae369d874f1456e}
      \field{labelnamesource}{author}
      \field{labeltitlesource}{title}
      \field{title}{Geoverarbeitung im Wandel: Vom Desktop in das World Wide Web}
      \field{year}{25.02.2015}
      \verb{urlraw}
      \verb https://de.wikipedia.org/wiki/Dienstekomposition
      \endverb
      \verb{url}
      \verb https://de.wikipedia.org/wiki/Dienstekomposition
      \endverb
    \endentry
    \entry{GDI-DE-Registry}{manual}{}
      \name{author}{1}{}{%
        {{hash=346c90b1520fa85e8fa86c8db3c5a4ce}{%
           family={GDI-DE},
           familyi={G\bibinithyphendelim D\bibinitperiod}}}%
      }
      \strng{namehash}{346c90b1520fa85e8fa86c8db3c5a4ce}
      \strng{fullhash}{346c90b1520fa85e8fa86c8db3c5a4ce}
      \strng{bibnamehash}{346c90b1520fa85e8fa86c8db3c5a4ce}
      \strng{authorbibnamehash}{346c90b1520fa85e8fa86c8db3c5a4ce}
      \strng{authornamehash}{346c90b1520fa85e8fa86c8db3c5a4ce}
      \strng{authorfullhash}{346c90b1520fa85e8fa86c8db3c5a4ce}
      \field{extraname}{1}
      \field{sortinit}{G}
      \field{sortinithash}{62eb2aa29549e4fdbd3cb154ec5711cb}
      \field{labelnamesource}{author}
      \field{labeltitlesource}{title}
      \field{title}{GDI-DE Registry}
      \field{year}{aufgerufen am 27.10.2020}
      \verb{urlraw}
      \verb https://www.gdi-de.org/GDI-DE/Servicefunktionen/GDI-DE%20Registry
      \endverb
      \verb{url}
      \verb https://www.gdi-de.org/GDI-DE/Servicefunktionen/GDI-DE%20Registry
      \endverb
    \endentry
    \entry{GDI-DE-Newsletter}{manual}{}
      \name{author}{1}{}{%
        {{hash=346c90b1520fa85e8fa86c8db3c5a4ce}{%
           family={GDI-DE},
           familyi={G\bibinithyphendelim D\bibinitperiod}}}%
      }
      \strng{namehash}{346c90b1520fa85e8fa86c8db3c5a4ce}
      \strng{fullhash}{346c90b1520fa85e8fa86c8db3c5a4ce}
      \strng{bibnamehash}{346c90b1520fa85e8fa86c8db3c5a4ce}
      \strng{authorbibnamehash}{346c90b1520fa85e8fa86c8db3c5a4ce}
      \strng{authornamehash}{346c90b1520fa85e8fa86c8db3c5a4ce}
      \strng{authorfullhash}{346c90b1520fa85e8fa86c8db3c5a4ce}
      \field{extraname}{2}
      \field{sortinit}{G}
      \field{sortinithash}{62eb2aa29549e4fdbd3cb154ec5711cb}
      \field{labelnamesource}{author}
      \field{labeltitlesource}{title}
      \field{title}{NEWSletter}
      \field{year}{4.2013}
      \verb{urlraw}
      \verb https://www.gdi.bayern.de/file/pdf/884/GDI-DE_Newsletter_2013_04.pdf
      \endverb
      \verb{url}
      \verb https://www.gdi.bayern.de/file/pdf/884/GDI-DE_Newsletter_2013_04.pdf
      \endverb
    \endentry
    \entry{GDI-DE-ProfilWMS}{manual}{}
      \name{author}{1}{}{%
        {{hash=241f8f7a8e1801b1cb73bfa82a4356fb}{%
           family={GDI-DE},
           familyi={G\bibinithyphendelim D\bibinitperiod},
           given={AK\bibnamedelima WMS},
           giveni={A\bibinitperiod\bibinitdelim W\bibinitperiod},
           prefix={der},
           prefixi={d\bibinitperiod}}}%
      }
      \strng{namehash}{241f8f7a8e1801b1cb73bfa82a4356fb}
      \strng{fullhash}{241f8f7a8e1801b1cb73bfa82a4356fb}
      \strng{bibnamehash}{241f8f7a8e1801b1cb73bfa82a4356fb}
      \strng{authorbibnamehash}{241f8f7a8e1801b1cb73bfa82a4356fb}
      \strng{authornamehash}{241f8f7a8e1801b1cb73bfa82a4356fb}
      \strng{authorfullhash}{241f8f7a8e1801b1cb73bfa82a4356fb}
      \field{sortinit}{G}
      \field{sortinithash}{62eb2aa29549e4fdbd3cb154ec5711cb}
      \field{labelnamesource}{author}
      \field{labeltitlesource}{title}
      \field{title}{Profil WMS-DE\_1.0}
      \field{year}{2019 (aufgerufen am 22.10.2020)}
      \verb{urlraw}
      \verb https://www.geoportal.de/SharedDocs/Downloads/DE/GDI-DE/WMS_Profil_V1.pdf?__blob=publicationFile
      \endverb
      \verb{url}
      \verb https://www.geoportal.de/SharedDocs/Downloads/DE/GDI-DE/WMS_Profil_V1.pdf?__blob=publicationFile
      \endverb
    \endentry
    \entry{UniGIS-Vector-Tiles}{manual}{}
      \name{author}{1}{}{%
        {{hash=7397ca518a7c6e29e03c4469f433e058}{%
           family={Jünger},
           familyi={J\bibinitperiod},
           given={Gerd},
           giveni={G\bibinitperiod}}}%
      }
      \strng{namehash}{7397ca518a7c6e29e03c4469f433e058}
      \strng{fullhash}{7397ca518a7c6e29e03c4469f433e058}
      \strng{bibnamehash}{7397ca518a7c6e29e03c4469f433e058}
      \strng{authorbibnamehash}{7397ca518a7c6e29e03c4469f433e058}
      \strng{authornamehash}{7397ca518a7c6e29e03c4469f433e058}
      \strng{authorfullhash}{7397ca518a7c6e29e03c4469f433e058}
      \field{sortinit}{J}
      \field{sortinithash}{c45040a764d616897e7f5b30174d7b92}
      \field{labelnamesource}{author}
      \field{labeltitlesource}{title}
      \field{title}{Vector Tiles als Datenbasis für OGCDarstellungsdienste WMS und WMTS}
      \field{year}{21.11.2018}
      \verb{urlraw}
      \verb http://unigis.sbg.ac.at/files/Mastertheses/Full/104577.pdf
      \endverb
      \verb{url}
      \verb http://unigis.sbg.ac.at/files/Mastertheses/Full/104577.pdf
      \endverb
    \endentry
    \entry{GDI-DE-zentrales-Register}{manual}{}
      \name{author}{1}{}{%
        {{hash=b4394f419318b2dac58b854a6abbe0a0}{%
           family={Registry},
           familyi={R\bibinitperiod},
           given={GDI-DE},
           giveni={G\bibinithyphendelim D\bibinitperiod}}}%
      }
      \strng{namehash}{b4394f419318b2dac58b854a6abbe0a0}
      \strng{fullhash}{b4394f419318b2dac58b854a6abbe0a0}
      \strng{bibnamehash}{b4394f419318b2dac58b854a6abbe0a0}
      \strng{authorbibnamehash}{b4394f419318b2dac58b854a6abbe0a0}
      \strng{authornamehash}{b4394f419318b2dac58b854a6abbe0a0}
      \strng{authorfullhash}{b4394f419318b2dac58b854a6abbe0a0}
      \field{sortinit}{R}
      \field{sortinithash}{b9c68a358aea118dfa887b6e902414a7}
      \field{labelnamesource}{author}
      \field{labeltitlesource}{title}
      \field{title}{zentrales Register für geodatenbezogene Inhalte}
      \field{year}{aufgerufen am 27.10.2020}
      \verb{urlraw}
      \verb https://www.gdi-de.org/GDI-DE/Servicefunktionen/GDI-DE%20Registry
      \endverb
      \verb{url}
      \verb https://www.gdi-de.org/GDI-DE/Servicefunktionen/GDI-DE%20Registry
      \endverb
    \endentry
    \entry{Lanig-Zipf-WPS}{manual}{}
      \name{author}{1}{}{%
        {{hash=6a89bf1731623d7308b8e25df8f2b1b5}{%
           family={Sandra\bibnamedelima Lanig},
           familyi={S\bibinitperiod\bibinitdelim L\bibinitperiod},
           given={Alexander\bibnamedelima Zipf},
           giveni={A\bibinitperiod\bibinitdelim Z\bibinitperiod}}}%
      }
      \strng{namehash}{6a89bf1731623d7308b8e25df8f2b1b5}
      \strng{fullhash}{6a89bf1731623d7308b8e25df8f2b1b5}
      \strng{bibnamehash}{6a89bf1731623d7308b8e25df8f2b1b5}
      \strng{authorbibnamehash}{6a89bf1731623d7308b8e25df8f2b1b5}
      \strng{authornamehash}{6a89bf1731623d7308b8e25df8f2b1b5}
      \strng{authorfullhash}{6a89bf1731623d7308b8e25df8f2b1b5}
      \field{sortinit}{S}
      \field{sortinithash}{c319cff79d99c853d775f88277d4e45f}
      \field{labelnamesource}{author}
      \field{labeltitlesource}{title}
      \field{title}{Standardkonforme Geodatenverarbeitung und Diensteorchestrierung am Beispiel der Solarpotenzialanalyse mittels OGC Web Processing Service (WPS)}
      \field{year}{25.02.2015}
      \verb{urlraw}
      \verb https://www.geog.uni-heidelberg.de/md/chemgeo/geog/gis/lanig_zipf_agit2010_20100423.pdf
      \endverb
      \verb{url}
      \verb https://www.geog.uni-heidelberg.de/md/chemgeo/geog/gis/lanig_zipf_agit2010_20100423.pdf
      \endverb
    \endentry
    \entry{WIKI-Dienstekomposition}{manual}{}
      \name{author}{1}{}{%
        {{hash=9c677286866aad38f8e9b660f5411814}{%
           family={Wikipedia},
           familyi={W\bibinitperiod}}}%
      }
      \strng{namehash}{9c677286866aad38f8e9b660f5411814}
      \strng{fullhash}{9c677286866aad38f8e9b660f5411814}
      \strng{bibnamehash}{9c677286866aad38f8e9b660f5411814}
      \strng{authorbibnamehash}{9c677286866aad38f8e9b660f5411814}
      \strng{authornamehash}{9c677286866aad38f8e9b660f5411814}
      \strng{authorfullhash}{9c677286866aad38f8e9b660f5411814}
      \field{sortinit}{W}
      \field{sortinithash}{1af34bd8c148ffb32de1494636b49713}
      \field{labelnamesource}{author}
      \field{labeltitlesource}{title}
      \field{title}{Dienstekomposition}
      \field{year}{22.03.2019 um 21:43 (aufgerufen am 27.10.2020)}
      \verb{urlraw}
      \verb https://de.wikipedia.org/wiki/Dienstekomposition
      \endverb
      \verb{url}
      \verb https://de.wikipedia.org/wiki/Dienstekomposition
      \endverb
    \endentry
  \enddatalist
\endrefsection
\endinput

